7

12 13
15
2 9
9 6
10 5
10 7
5 12
9 2
5 8
11 9
3 12
1 5
1 1
6 7
11 11
9 2
6 3
5 1

6 6
7
5 3
5 3
3 5
4 1
2 5
5 3
2 5
3 2

6 19
2
3 4
4 9
1 1

11 20
24
3 9
8 14
1 15
1 18
3 11
9 11
7 5
2 8
3 6
7 10
10 6
7 13
4 18
3 14
4 6
5 1
9 4
4 17
6 6
8 4
3 17
10 17
3 4
8 3
1 1

18 12
2
16 1
6 3
1 2

13 14
29
9 4
2 9
5 10
7 6
11 2
1 1
12 3
1 7
3 3
11 12
11 9
4 2
5 11
12 10
11 5
6 1
2 12
8 12
3 1
7 6
7 7
8 9
11 10
5 12
7 4
12 4
12 9
2 6
12 12
4 2

14 17
38
10 10
2 4
7 3
8 12
12 5
9 1
8 1
11 4
7 12
6 9
8 7
1 3
6 6
3 11
3 4
3 9
8 14
4 16
2 14
2 6
1 14
12 5
1 12
3 14
10 6
12 5
10 5
9 12
6 13
7 7
6 6
8 14
8 13
12 3
3 9
1 2
10 7
4 1
2 1
