8

5 5
15
1 4
4 4
0 3
3 0
3 2
1 2
4 0
2 2
2 3
0 0
3 4
1 0
0 4
4 2
3 1
7 1

5 5
15
0 2
4 3
2 2
4 1
4 2
1 3
2 0
3 3
2 1
3 4
4 0
1 0
3 2
0 4
0 1
7 1

1 10
8
0 2
0 4
0 1
0 9
0 5
0 6
0 8
0 7
4 1

10 1
8
3 0
0 0
8 0
4 0
2 0
7 0
1 0
9 0
4 1

10 10
20
5 1
0 5
7 1
1 6
0 2
9 1
0 8
0 0
3 4
5 6
2 3
9 4
5 4
6 6
6 1
5 8
1 4
4 6
0 3
2 4
20 1

10 10
20
8 5
2 1
5 4
3 1
5 3
6 5
9 5
4 0
7 4
9 6
4 8
0 0
6 3
3 7
7 9
8 1
0 5
6 1
2 7
6 7
20 1

10 20
60
9 3
1 10
3 19
5 3
1 3
8 16
6 4
7 6
0 11
1 8
9 8
9 5
7 19
2 14
0 10
8 17
8 10
6 1
5 2
7 5
1 14
7 8
5 18
9 4
2 13
0 14
3 14
1 12
6 5
6 11
3 1
2 5
6 13
8 1
9 15
6 8
5 4
5 9
2 3
4 8
7 12
3 3
6 6
0 15
3 7
9 0
9 1
6 2
2 8
9 13
8 3
0 13
5 5
8 14
1 5
4 13
6 9
3 10
9 19
0 12
40 3

10 20
60
8 9
3 6
9 9
1 10
2 8
6 8
5 11
0 14
3 18
8 14
1 6
1 14
4 14
7 1
5 10
1 12
2 15
4 10
9 14
7 11
4 7
5 14
1 8
9 6
9 12
8 12
1 11
8 10
8 5
4 8
6 18
1 2
8 3
8 16
3 17
3 1
5 7
7 16
7 18
0 6
8 11
8 2
7 12
6 13
8 15
6 7
0 17
2 1
9 2
7 17
1 16
5 9
8 6
0 13
4 19
4 15
1 0
3 8
8 17
7 9
40 3
