8

9 5
12
5 2
3 3
2 4
4 2
4 0
8 3
2 0
6 0
1 2
8 0
2 0
2 1
7 2

8 9
8
0 5
3 5
3 8
3 2
6 1
3 6
0 7
6 7
3 2

6 7
16
3 5
5 2
0 6
3 0
4 4
4 4
0 6
1 3
2 0
4 0
2 6
5 6
2 2
2 1
5 0
2 2
3 1

9 8
19
8 5
7 0
3 4
5 0
1 0
4 3
0 1
6 5
8 2
2 4
1 5
3 3
6 0
5 7
8 6
4 2
0 5
5 3
1 3
1 1

6 5
7
1 1
5 1
5 3
2 2
0 4
3 4
0 3
8 2

5 6
11
1 4
0 2
2 0
4 3
1 0
2 5
4 2
1 0
1 0
3 3
2 2
6 1

9 10
18
1 6
2 5
5 2
2 0
2 3
4 8
4 3
1 8
5 8
1 0
5 7
8 4
5 5
1 0
5 6
7 7
4 7
1 5
5 1

7 5
20
5 4
5 1
5 3
5 4
0 0
2 2
3 3
4 0
1 1
1 2
6 0
3 3
0 1
5 3
0 0
0 2
4 3
4 1
1 2
1 0
1 1
