10

12 11
11
10 1
3 0
0 8
0 8
6 2
10 7
10 7
9 10
2 4
0 6
9 3
4 2

10 14
11
5 3
0 12
7 8
3 4
4 2
9 5
2 3
5 12
2 2
6 1
9 5
4 2

15 13
11
8 5
12 5
0 5
3 10
3 1
1 0
11 1
13 7
7 7
8 4
5 11
8 2

11 10
10
5 4
2 0
6 2
1 4
4 6
2 8
7 5
5 8
1 4
4 2
2 2

15 13
10
9 4
1 7
1 9
7 1
6 2
10 12
9 6
13 10
0 7
10 8
7 1

11 15
13
2 14
2 1
10 12
8 2
9 6
6 3
1 13
5 8
2 1
0 11
6 1
4 12
4 14
4 1

12 10
10
9 7
3 3
5 0
0 1
0 3
4 8
0 9
1 6
5 7
11 0
4 2

13 15
11
11 13
0 10
4 13
12 5
1 11
1 10
5 4
2 0
11 1
2 3
5 4
1 1

11 13
11
5 4
9 6
4 11
1 1
8 5
10 7
9 5
10 1
1 11
8 10
4 9
1 1

10 10
12
5 9
9 2
9 0
6 9
5 3
0 3
4 5
5 9
6 0
0 2
2 6
7 2
4 1
